qemu-system-x86_64 -hda /tmp/wZt5cGXYzr.dsk -m 4 -net none -nographic -monitor null
PiLo hda1
Loading.........
Kernel command line: -q run alarm-simultaneous
Pintos booting with 3,968 kB RAM...
367 pages available in kernel pool.
367 pages available in user pool.
List size: 0
Calibrating timer...  366,592,000 loops/s.
Boot complete.
Executing 'alarm-simultaneous':
(alarm-simultaneous) begin
(alarm-simultaneous) Creating 3 threads to sleep 5 times each.
(alarm-simultaneous) Each thread sleeps 10 ticks each time.
(alarm-simultaneous) Within an iteration, all threads should wake up on the same tick.
(alarm-simultaneous) iteration 0, thread 0: woke up after 10 ticks
(alarm-simultaneous) iteration 0, thread 1: woke up 0 ticks later
(alarm-simultaneous) iteration 0, thread 2: woke up 0 ticks later
(alarm-simultaneous) iteration 1, thread 0: woke up 10 ticks later
(alarm-simultaneous) iteration 1, thread 1: woke up 0 ticks later
(alarm-simultaneous) iteration 1, thread 2: woke up 0 ticks later
(alarm-simultaneous) iteration 2, thread 0: woke up 10 ticks later
(alarm-simultaneous) iteration 2, thread 1: woke up 0 ticks later
(alarm-simultaneous) iteration 2, thread 2: woke up 0 ticks later
(alarm-simultaneous) iteration 3, thread 0: woke up 10 ticks later
(alarm-simultaneous) iteration 3, thread 1: woke up 0 ticks later
(alarm-simultaneous) iteration 3, thread 2: woke up 0 ticks later
(alarm-simultaneous) iteration 4, thread 0: woke up 10 ticks later
(alarm-simultaneous) iteration 4, thread 1: woke up 0 ticks later
(alarm-simultaneous) iteration 4, thread 2: woke up 0 ticks later
(alarm-simultaneous) end
Execution of 'alarm-simultaneous' complete.
Timer: 296 ticks
Thread: 250 idle ticks, 46 kernel ticks, 0 user ticks
Console: 1628 characters output
Keyboard: 0 keys pressed
Powering off...
